{
    "name": "rsht",
    "authors": [
        "tuxcrafting"
    ],
    "description": "Simple web server framework written in D",
    "copyright": "Copyright © 2018, tuxcrafting",
    "license": "MIT",
    "targetType": "library",
    "dependencies": {
        "devnt": {
            "path": "./devnt"
        }
    },
    "subPackages": [
        {
            "name": "simple",
            "description": "Simple RSHT example",
            "targetType": "executable",
            "sourceFiles": [
                "examples/simple.d"
            ],
            "dependencies": {
                "rsht": {
                    "path": "."
                }
            }
        }
    ]
}
